{
  "epub-directory": "out.epub",
  "pdf-directory": "out.pdf",
  "html-directory": "out.html",
  "no-images": false,
  "flow-size": 165,
  "embed-fonts": true,
  "info-box": false,
  "meta-data": false,
  "epub3": false,
  "pdf": false
}
